Markdown
…
Import

Alle Files mit Endung .fit importieren und in ein einzelnes Data.frame zusammenfhren.

myfiles <- list.files(".",pattern = "*.fit")

for (i in 1:length(myfiles)) {
  varName <- paste0("temp", i, ".fit")
  assign(varName, records(readFitFile(myfiles[i])))
}

full <- bind_rows(temp1.fit, temp2.fit)
full

## # A tibble: 2,153 x 9
##    timestamp           position_lat position_long distance enhanced_speed
##    <dttm>                     <dbl>         <dbl>    <dbl>          <dbl>
##  1 2021-05-13 16:21:07         47.3          9.10      0             2.44
##  2 2021-05-13 16:21:14         47.3          9.10     20.1           3.04
##  3 2021-05-13 16:21:17         47.3          9.10     33.2           3.59
##  4 2021-05-13 16:21:19         47.3          9.10     40.6           3.80
##  5 2021-05-13 16:21:21         47.3          9.10     46.6           3.72
##  6 2021-05-13 16:21:24         47.3          9.10     56.8           3.44
##  7 2021-05-13 16:21:25         47.3          9.10     60.2           3.44
##  8 2021-05-13 16:21:28         47.3          9.10     69.9           3.45
##  9 2021-05-13 16:21:34         47.3          9.10     90.0           3.27
## 10 2021-05-13 16:21:40         47.3          9.10    108.            3.24
## # ... with 2,143 more rows, and 4 more variables: enhanced_altitude <dbl>,
## #   heart_rate <dbl>, cadence <dbl>, fractional_cadence <dbl>
…
